<svg xmlns="http://www.w3.org/2000/svg" width="786.827" height="501.132" viewBox="0 0 786.827 501.132">
  <g id="Grupo_317" data-name="Grupo 317" transform="translate(-528.923 -1151.857)">
    <line id="Linha_199" data-name="Linha 199" x1="384.851" y2="40.92" transform="translate(537.174 1160.108)" fill="#a90c44" stroke="#a90c44" stroke-linecap="round" stroke-linejoin="round" stroke-width="15"/>
    <path id="Caminho_297" data-name="Caminho 297" d="M1303.866,1554.062l-358.7,58.455L621.288,1564.54a85.527,85.527,0,0,1-70.8-84.249L550.2,1196.1l358.207-37.612.781,263.269a85.527,85.527,0,0,0,70.8,84.249l323.876,47.977" fill="#f80" stroke="#a90c44" stroke-linecap="round" stroke-linejoin="round" stroke-width="3"/>
    <g id="Grupo_314" data-name="Grupo 314">
      <path id="Caminho_298" data-name="Caminho 298" d="M901.06,1416.748l-206.886-8.125,1.764,135.8L903.1,1573.5Z" fill="#fff" stroke="#a90c44" stroke-linecap="round" stroke-linejoin="round" stroke-width="3"/>
      <path id="Caminho_299" data-name="Caminho 299" d="M901.06,1416.748l94.2-109.344,89.4,93.529,1.9,146.191L903.1,1573.5Z" fill="#fff" stroke="#a90c44" stroke-linecap="round" stroke-linejoin="round" stroke-width="3"/>
      <path id="Caminho_300" data-name="Caminho 300" d="M1103.917,1410.651,994.1,1296.439l-99.555,126.449L685.71,1413.8l.087,6.714,217.546,9.465,91.721-118.012,89.683,95.764.041,3.167Z" fill="#f80" stroke="#a90c44" stroke-linecap="round" stroke-linejoin="round" stroke-width="3"/>
      <path id="Caminho_301" data-name="Caminho 301" d="M994.1,1296.439l-216.88,2.816L685.71,1413.8l208.838,9.086Z" fill="#a90c44" stroke="#a90c44" stroke-linecap="round" stroke-linejoin="round" stroke-width="3"/>
      <path id="Caminho_302" data-name="Caminho 302" d="M1044.221,1435.229l-83.515,11.661,1.531,117.9,83.513-11.812Z" fill="#f80" stroke="#a90c44" stroke-linecap="round" stroke-linejoin="round" stroke-width="3"/>
      <path id="Caminho_303" data-name="Caminho 303" d="M1025.856,1397.305a26.732,26.732,0,1,0-21.625,31.009A26.732,26.732,0,0,0,1025.856,1397.305Zm-22.222,27.661a23.332,23.332,0,1,1,18.874-27.065A23.331,23.331,0,0,1,1003.634,1424.966Z" fill="#f80" stroke="#a90c44" stroke-linecap="round" stroke-linejoin="round" stroke-width="3"/>
      <path id="Caminho_304" data-name="Caminho 304" d="M732.394,1457.288l.662,50.926,53.289,5.643-.675-51.94Zm3.854,4.04,20.264,1.761.572,44.037-20.269-2.147Zm46.243,48.488-21.982-2.327-.572-44.1,21.976,1.91Z" fill="#f80" stroke="#a90c44" stroke-linecap="round" stroke-linejoin="round" stroke-width="3"/>
      <path id="Caminho_305" data-name="Caminho 305" d="M793.282,1462.691l.69,53.08,53.292,5.911-.7-54.136Zm3.856,4.214,20.265,1.846.6,45.9-20.27-2.248Zm46.27,50.563-21.983-2.438-.6-45.966,21.977,2Z" fill="#f80" stroke="#a90c44" stroke-linecap="round" stroke-linejoin="round" stroke-width="3"/>
      <path id="Caminho_306" data-name="Caminho 306" d="M1022.508,1397.9a23.338,23.338,0,0,0-31.562-17.6c.151-.03.3-.076.447-.1a23.333,23.333,0,0,1,12.688,44.663A23.32,23.32,0,0,0,1022.508,1397.9Z" fill="#f80" stroke="#a90c44" stroke-linecap="round" stroke-linejoin="round" stroke-width="3"/>
      <path id="Caminho_307" data-name="Caminho 307" d="M1034.042,1444.945l-64.688,9.266,1.421,109.432,64.686-9.417Z" fill="#a90c44" stroke="#a90c44" stroke-linecap="round" stroke-linejoin="round" stroke-width="3"/>
    </g>
    <g id="Grupo_315" data-name="Grupo 315">
      <line id="Linha_200" data-name="Linha 200" y2="292.749" transform="translate(1284.304 1249.598)" fill="none" stroke="#a90c44" stroke-linecap="round" stroke-linejoin="round" stroke-width="3"/>
      <path id="Caminho_308" data-name="Caminho 308" d="M1313.82,1542.347l-29.516-78.961-28.254,78.961" fill="none" stroke="#a90c44" stroke-linecap="round" stroke-linejoin="round" stroke-width="3"/>
      <path id="Caminho_309" data-name="Caminho 309" d="M1216.775,1204.93l54.011,26.443,6.111-3.865a7.74,7.74,0,0,1,10.678,2.4l3.518,5.564a7.739,7.739,0,0,1-2.405,10.678l-8.109,5.128-12.312,57.193Z" fill="#a90c44" stroke="#a90c44" stroke-linecap="round" stroke-linejoin="round" stroke-width="3"/>
      <path id="Caminho_310" data-name="Caminho 310" d="M1216.731,1205.451l-34.045-5.592,46.206,94.517,39.376,14.1Z" fill="#fff" stroke="#a90c44" stroke-linecap="round" stroke-linejoin="round" stroke-width="3"/>
    </g>
    <g id="Grupo_316" data-name="Grupo 316">
      <path id="Caminho_311" data-name="Caminho 311" d="M1204.184,1392.128l6.32.358-5.708,3.575c-5.617,3.518-7.45,10.482-3.942,14.977l3.565,4.567-6.157-.977a12.453,12.453,0,0,0-13.675,9.424l-1.279,6.1-3-4.957c-2.951-4.879-10.111-5.645-15.4-1.649l-5.373,4.061,1.916-6.033a8.75,8.75,0,0,0-8.1-11.756l-6.32-.358,5.709-3.575c5.616-3.517,7.449-10.482,3.941-14.976l-3.565-4.568,6.157.978a12.454,12.454,0,0,0,13.676-9.424l1.278-6.1,3,4.958c2.951,4.878,10.112,5.645,15.4,1.649l5.373-4.062-1.916,6.034A8.748,8.748,0,0,0,1204.184,1392.128Z" fill="#f80" stroke="#a90c44" stroke-linecap="round" stroke-linejoin="round" stroke-width="3"/>
      <path id="Caminho_312" data-name="Caminho 312" d="M1137.992,1639.4l56.893-147.23h5.477l58.487,146.607" fill="none" stroke="#a90c44" stroke-linecap="round" stroke-linejoin="round" stroke-width="3"/>
      <line id="Linha_201" data-name="Linha 201" y2="158.837" transform="translate(1197.623 1492.165)" fill="none" stroke="#a90c44" stroke-linecap="round" stroke-linejoin="round" stroke-width="3"/>
      <rect id="Retângulo_160" data-name="Retângulo 160" width="18.324" height="4.286" transform="translate(1188.133 1486.913)" stroke-width="3" stroke="#a90c44" stroke-linecap="round" stroke-linejoin="round" fill="none"/>
      <line id="Linha_202" data-name="Linha 202" y1="58.122" transform="translate(1197.623 1428.791)" fill="none" stroke="#a90c44" stroke-linecap="round" stroke-linejoin="round" stroke-width="3"/>
      <rect id="Retângulo_161" data-name="Retângulo 161" width="9.404" height="3.154" transform="translate(1192.671 1483.758)" stroke-width="3" stroke="#a90c44" stroke-linecap="round" stroke-linejoin="round" fill="none"/>
      <path id="Caminho_313" data-name="Caminho 313" d="M1188.814,1407.967l-6.378,3.711a1.581,1.581,0,0,0-.784,1.385l.275,21.137a1.579,1.579,0,0,0,.787,1.346l6.444,3.725Z" fill="#fff" stroke="#a90c44" stroke-linecap="round" stroke-linejoin="round" stroke-width="3"/>
      <path id="Caminho_314" data-name="Caminho 314" d="M1208.816,1407.537v-.354a1.684,1.684,0,0,0-1.575-1.68l-5.252-.341a1.683,1.683,0,0,0-1.793,1.68h0a1.684,1.684,0,0,1-1.781,1.681l-7.8-.452a1.684,1.684,0,0,0-1.781,1.7l.3,27.579a1.683,1.683,0,0,0,1.923,1.648l27.665-3.977a1.683,1.683,0,0,0,1.444-1.666v-21.983a1.683,1.683,0,0,0-1.586-1.681l-8.181-.473A1.684,1.684,0,0,1,1208.816,1407.537Z" fill="#fff" stroke="#a90c44" stroke-linecap="round" stroke-linejoin="round" stroke-width="3"/>
      <path id="Caminho_315" data-name="Caminho 315" d="M1194.413,1418.9V1432.1l20.9-2.724V1418.56Z" fill="#a90c44" stroke="#a90c44" stroke-linecap="round" stroke-linejoin="round" stroke-width="3"/>
      <path id="Caminho_316" data-name="Caminho 316" d="M1202.7,1408.516v2.537h3.508v-2.537Z" fill="#a90c44" stroke="#a90c44" stroke-linecap="round" stroke-linejoin="round" stroke-width="3"/>
      <path id="Caminho_317" data-name="Caminho 317" d="M1181.652,1417.127l-3.508-1.045s-4.627,5.522,0,13.433l3.508,1.642Z" fill="#fff" stroke="#a90c44" stroke-linecap="round" stroke-linejoin="round" stroke-width="3"/>
    </g>
    <path id="Caminho_318" data-name="Caminho 318" d="M899.488,1260.989l-126.178-3.527-6.073,89.23,133.823,8.24Z" fill="#fff" stroke="#a90c44" stroke-linecap="round" stroke-linejoin="round" stroke-width="3"/>
    <path id="Caminho_319" data-name="Caminho 319" d="M837.4,1301.971l-22.4-.451.472,14.689,22.473,2.716Z" fill="#a90c44" stroke="#a90c44" stroke-linecap="round" stroke-linejoin="round" stroke-width="3"/>
    <line id="Linha_203" data-name="Linha 203" x2="41.69" y2="44.058" transform="translate(773.31 1257.462)" fill="none" stroke="#a90c44" stroke-linecap="round" stroke-linejoin="round" stroke-width="3"/>
    <line id="Linha_204" data-name="Linha 204" x1="62.088" y2="40.982" transform="translate(837.4 1260.989)" fill="none" stroke="#a90c44" stroke-linecap="round" stroke-linejoin="round" stroke-width="3"/>
    <line id="Linha_205" data-name="Linha 205" x2="63.115" y2="36.007" transform="translate(837.944 1318.926)" fill="none" stroke="#a90c44" stroke-linecap="round" stroke-linejoin="round" stroke-width="3"/>
    <line id="Linha_206" data-name="Linha 206" x1="48.235" y2="30.483" transform="translate(767.236 1316.209)" fill="none" stroke="#a90c44" stroke-linecap="round" stroke-linejoin="round" stroke-width="3"/>
    <line id="Linha_207" data-name="Linha 207" y2="332.172" transform="translate(827.177 1318.886)" fill="#f80" stroke="#a90c44" stroke-linecap="round" stroke-linejoin="round" stroke-width="3"/>
    <path id="Caminho_320" data-name="Caminho 320" d="M793.686,1651.058l33.491-89.594,32.059,89.594" fill="none" stroke="#a90c44" stroke-linecap="round" stroke-linejoin="round" stroke-width="3"/>
  </g>
</svg>
