<svg xmlns="http://www.w3.org/2000/svg" width="75" height="75" viewBox="0 0 75 75">
  <g id="Grupo_255" data-name="Grupo 255" transform="translate(-5308.304 -63.198)">
    <circle id="Elipse_65" data-name="Elipse 65" cx="37.5" cy="37.5" r="37.5" transform="translate(5308.304 63.198)" fill="#f80"/>
    <g id="Grupo_241" data-name="Grupo 241" transform="translate(5325.276 77.742)">
      <g id="Grupo_235" data-name="Grupo 235" transform="translate(0)">
        <g id="Grupo_233" data-name="Grupo 233">
          <path id="Caminho_265" data-name="Caminho 265" d="M552.879-260.226a.887.887,0,0,1-.257-.039.879.879,0,0,1-.584-1.1l13.3-43.471a.879.879,0,0,1,1.1-.583.879.879,0,0,1,.584,1.1l-13.3,43.47A.879.879,0,0,1,552.879-260.226Z" transform="translate(-552 305.456)" fill="#fff"/>
        </g>
        <g id="Grupo_234" data-name="Grupo 234" transform="translate(26.728)">
          <path id="Caminho_266" data-name="Caminho 266" d="M600.224-260.226a.88.88,0,0,1-.841-.623l-13.294-43.47a.879.879,0,0,1,.584-1.1.881.881,0,0,1,1.1.583l13.294,43.471a.879.879,0,0,1-.584,1.1A.88.88,0,0,1,600.224-260.226Z" transform="translate(-586.051 305.456)" fill="#fff"/>
        </g>
      </g>
      <g id="Grupo_240" data-name="Grupo 240" transform="translate(19.165 1.407)">
        <g id="Grupo_236" data-name="Grupo 236" transform="translate(0.995)">
          <rect id="Retângulo_115" data-name="Retângulo 115" width="1.462" height="4.934" rx="0.731" fill="#fff"/>
        </g>
        <g id="Grupo_237" data-name="Grupo 237" transform="translate(0.751 8.223)">
          <rect id="Retângulo_116" data-name="Retângulo 116" width="1.949" height="6.578" rx="0.975" fill="#fff"/>
        </g>
        <g id="Grupo_238" data-name="Grupo 238" transform="translate(0.345 17.953)">
          <rect id="Retângulo_117" data-name="Retângulo 117" width="2.761" height="9.319" rx="1.381" fill="#fff"/>
        </g>
        <g id="Grupo_239" data-name="Grupo 239" transform="translate(0 30.767)">
          <rect id="Retângulo_118" data-name="Retângulo 118" width="3.452" height="11.649" rx="1.726" fill="#fff"/>
        </g>
      </g>
    </g>
  </g>
</svg>
