<svg xmlns="http://www.w3.org/2000/svg" width="75" height="75" viewBox="0 0 75 75">
  <g id="Grupo_254" data-name="Grupo 254" transform="translate(-5197.147 -63)">
    <circle id="Elipse_64" data-name="Elipse 64" cx="37.5" cy="37.5" r="37.5" transform="translate(5197.147 63)" fill="#f80"/>
    <g id="Grupo_232" data-name="Grupo 232" transform="translate(5212.649 78.728)">
      <g id="Grupo_228" data-name="Grupo 228" transform="translate(0)">
        <path id="Caminho_261" data-name="Caminho 261" d="M439.876-258.923a.909.909,0,0,1-.362-.074.651.651,0,0,1-.421-.581v-37.043a.632.632,0,0,1,.333-.538l11.509-6.743a.915.915,0,0,1,.811-.044.65.65,0,0,1,.421.581v37.044a.63.63,0,0,1-.334.537l-11.509,6.744A.893.893,0,0,1,439.876-258.923Zm.783-37.358v35.443l9.943-5.826v-35.444Zm10.726,29.959h0Z" transform="translate(-439.093 304.021)" fill="#fff"/>
      </g>
      <g id="Grupo_229" data-name="Grupo 229" transform="translate(23.445 1.34)">
        <path id="Caminho_262" data-name="Caminho 262" d="M469.832-258.551a.9.9,0,0,1-.463-.127.628.628,0,0,1-.319-.529V-296.25a.679.679,0,0,1,.549-.625l20.574-5.4a.912.912,0,0,1,.7.1.63.63,0,0,1,.319.528v37.044a.68.68,0,0,1-.549.625l-20.575,5.4A.9.9,0,0,1,469.832-258.551Zm.783-37.218v35.67l19.009-4.992v-35.67Zm19.791,31.159h0Z" transform="translate(-469.049 302.308)" fill="#fff"/>
      </g>
      <g id="Grupo_230" data-name="Grupo 230" transform="translate(11.937)">
        <path id="Caminho_263" data-name="Caminho 263" d="M466.636-258.923a.894.894,0,0,1-.449-.118l-11.508-6.744a.631.631,0,0,1-.333-.537v-37.044a.65.65,0,0,1,.421-.581.913.913,0,0,1,.81.044l11.508,6.743a.633.633,0,0,1,.334.538v37.043A.651.651,0,0,1,467-259,.914.914,0,0,1,466.636-258.923Zm-10.725-7.74,9.943,5.826v-35.443l-9.943-5.827Z" transform="translate(-454.345 304.021)" fill="#fff"/>
      </g>
      <g id="Grupo_231" data-name="Grupo 231" transform="translate(28.71 15.27)">
        <path id="Caminho_264" data-name="Caminho 264" d="M481.591-284.51h-.02a5.786,5.786,0,0,0-5.795,5.777c0,.064.008.127.01.191-.194,3.641,5.795,11.094,5.795,11.094s5.988-7.453,5.795-11.094c0-.064.01-.127.01-.191A5.786,5.786,0,0,0,481.591-284.51Zm-.01,9.538a3.629,3.629,0,0,1-3.635-3.624,3.629,3.629,0,0,1,3.635-3.623,3.629,3.629,0,0,1,3.635,3.623A3.629,3.629,0,0,1,481.581-274.972Z" transform="translate(-475.776 284.51)" fill="#fff"/>
      </g>
    </g>
  </g>
</svg>
