<svg id="Grupo_227" data-name="Grupo 227" xmlns="http://www.w3.org/2000/svg" width="96.971" height="48.974" viewBox="0 0 96.971 48.974">
  <path id="Caminho_257" data-name="Caminho 257" d="M395.9-284.649a1.641,1.641,0,0,0-2,1.178,1.639,1.639,0,0,0,1.178,2c10.524,2.711,17.061,6.862,17.061,10.834,0,5.491-13.307,12.114-35.574,13.7a1.639,1.639,0,0,0-1.52,1.751,1.64,1.64,0,0,0,1.634,1.524c.038,0,.079,0,.117,0,19.224-1.364,38.622-7.14,38.622-16.966C415.42-276.431,408.487-281.406,395.9-284.649Z" transform="translate(-318.449 298.538)" fill="#f80"/>
  <path id="Caminho_258" data-name="Caminho 258" d="M374.464-256.514l-4.18-3.951a1.64,1.64,0,0,0-2.318.066,1.641,1.641,0,0,0,.066,2.319l1.5,1.42c-.965-.015-1.932-.017-2.89-.052h-.007c-24.8-.906-40.144-7.941-40.144-13.939,0-3.883,6.314-7.976,16.476-10.681a1.639,1.639,0,0,0,1.163-2.006,1.641,1.641,0,0,0-2.006-1.163c-12.2,3.248-18.913,8.166-18.913,13.85,0,10.264,21.788,16.431,43.311,17.217h.067c.822.03,1.65.03,2.477.045l-1.036.981a1.638,1.638,0,0,0-.066,2.317,1.635,1.635,0,0,0,1.192.514,1.634,1.634,0,0,0,1.126-.448l4.18-3.951a1.612,1.612,0,0,0,.493-1.269A1.62,1.62,0,0,0,374.464-256.514Z" transform="translate(-323.213 298.552)" fill="#f80"/>
  <path id="Caminho_259" data-name="Caminho 259" d="M351.589-264.219h35.194a6.606,6.606,0,0,0,6.594-6.6v-19.935a6.607,6.607,0,0,0-6.594-6.6H351.589a6.606,6.606,0,0,0-6.594,6.6v19.935A6.605,6.605,0,0,0,351.589-264.219Zm35.194-2.186H351.589a4.418,4.418,0,0,1-4.41-4.416v-7.332l7.879-4.975,12.353,9.582a1.089,1.089,0,0,0,1.191.1l11.16-6.093,11.342,6.1a.7.7,0,0,0,.091.035v2.592A4.419,4.419,0,0,1,386.783-266.4Zm-35.194-28.768h35.194a4.419,4.419,0,0,1,4.41,4.416v14.876l-10.92-5.87a1.086,1.086,0,0,0-1.039,0l-11.052,6.035-12.392-9.613a1.092,1.092,0,0,0-1.251-.06l-7.36,4.648v-10.019A4.419,4.419,0,0,1,351.589-295.173Z" transform="translate(-321.184 297.359)" fill="#f80"/>
  <path id="Caminho_260" data-name="Caminho 260" d="M371.671-285.016a3.2,3.2,0,0,0,3.2-3.2,3.2,3.2,0,0,0-3.2-3.2,3.2,3.2,0,0,0-3.2,3.2A3.2,3.2,0,0,0,371.671-285.016Z" transform="translate(-319.032 297.913)" fill="#f80"/>
</svg>
