<svg xmlns="http://www.w3.org/2000/svg" width="232.515" height="267.011" viewBox="0 0 232.515 267.011">
  <g id="Camada_1" data-name="Camada 1" transform="translate(17.678 1.5)">
    <g id="Grupo_167" data-name="Grupo 167">
      <rect id="Retângulo_106" data-name="Retângulo 106" width="151.73" height="221.526" transform="translate(2.231)" stroke-width="3" stroke="#a90c44" stroke-linecap="round" stroke-linejoin="round" fill="#fff"/>
      <line id="Linha_156" data-name="Linha 156" x2="53.864" transform="translate(14.369 14.414)" fill="none" stroke="#a90c44" stroke-linecap="round" stroke-linejoin="round" stroke-width="3"/>
      <line id="Linha_157" data-name="Linha 157" x2="128.212" transform="translate(14.369 36.415)" fill="none" stroke="#a90c44" stroke-linecap="round" stroke-linejoin="round" stroke-width="3"/>
      <line id="Linha_158" data-name="Linha 158" x2="128.212" transform="translate(14.369 50.071)" fill="none" stroke="#a90c44" stroke-linecap="round" stroke-linejoin="round" stroke-width="3"/>
      <line id="Linha_159" data-name="Linha 159" x2="128.212" transform="translate(14.369 63.727)" fill="none" stroke="#a90c44" stroke-linecap="round" stroke-linejoin="round" stroke-width="3"/>
      <line id="Linha_160" data-name="Linha 160" x2="128.212" transform="translate(14.369 77.383)" fill="none" stroke="#a90c44" stroke-linecap="round" stroke-linejoin="round" stroke-width="3"/>
      <line id="Linha_161" data-name="Linha 161" x2="128.212" transform="translate(14.369 91.038)" fill="none" stroke="#a90c44" stroke-linecap="round" stroke-linejoin="round" stroke-width="3"/>
      <line id="Linha_162" data-name="Linha 162" x2="128.212" transform="translate(14.369 104.694)" fill="none" stroke="#a90c44" stroke-linecap="round" stroke-linejoin="round" stroke-width="3"/>
      <line id="Linha_163" data-name="Linha 163" x2="128.212" transform="translate(14.369 118.35)" fill="none" stroke="#a90c44" stroke-linecap="round" stroke-linejoin="round" stroke-width="3"/>
      <line id="Linha_164" data-name="Linha 164" x2="128.212" transform="translate(14.369 132.006)" fill="none" stroke="#a90c44" stroke-linecap="round" stroke-linejoin="round" stroke-width="3"/>
      <line id="Linha_165" data-name="Linha 165" x2="128.212" transform="translate(14.369 145.661)" fill="none" stroke="#a90c44" stroke-linecap="round" stroke-linejoin="round" stroke-width="3"/>
      <line id="Linha_166" data-name="Linha 166" x2="128.212" transform="translate(14.369 159.317)" fill="none" stroke="#a90c44" stroke-linecap="round" stroke-linejoin="round" stroke-width="3"/>
      <line id="Linha_167" data-name="Linha 167" x2="128.212" transform="translate(14.369 172.973)" fill="none" stroke="#a90c44" stroke-linecap="round" stroke-linejoin="round" stroke-width="3"/>
      <line id="Linha_168" data-name="Linha 168" x2="64.106" transform="translate(78.476 202.56)" fill="none" stroke="#a90c44" stroke-linecap="round" stroke-linejoin="round" stroke-width="3"/>
      <rect id="Retângulo_107" data-name="Retângulo 107" width="151.73" height="221.526" transform="translate(22.715 21.242)" stroke-width="3" stroke="#a90c44" stroke-linecap="round" stroke-linejoin="round" fill="#f80"/>
      <line id="Linha_169" data-name="Linha 169" x2="53.864" transform="translate(34.853 35.657)" fill="none" stroke="#a90c44" stroke-linecap="round" stroke-linejoin="round" stroke-width="3"/>
      <line id="Linha_170" data-name="Linha 170" x2="128.212" transform="translate(34.853 57.658)" fill="none" stroke="#a90c44" stroke-linecap="round" stroke-linejoin="round" stroke-width="3"/>
      <line id="Linha_171" data-name="Linha 171" x2="128.212" transform="translate(34.853 71.313)" fill="none" stroke="#a90c44" stroke-linecap="round" stroke-linejoin="round" stroke-width="3"/>
      <line id="Linha_172" data-name="Linha 172" x2="128.212" transform="translate(34.853 84.969)" fill="none" stroke="#a90c44" stroke-linecap="round" stroke-linejoin="round" stroke-width="3"/>
      <line id="Linha_173" data-name="Linha 173" x2="128.212" transform="translate(34.853 98.625)" fill="none" stroke="#a90c44" stroke-linecap="round" stroke-linejoin="round" stroke-width="3"/>
      <line id="Linha_174" data-name="Linha 174" x2="128.212" transform="translate(34.853 112.281)" fill="none" stroke="#a90c44" stroke-linecap="round" stroke-linejoin="round" stroke-width="3"/>
      <line id="Linha_175" data-name="Linha 175" x2="128.212" transform="translate(34.853 125.936)" fill="none" stroke="#a90c44" stroke-linecap="round" stroke-linejoin="round" stroke-width="3"/>
      <line id="Linha_176" data-name="Linha 176" x2="128.212" transform="translate(34.853 139.592)" fill="none" stroke="#a90c44" stroke-linecap="round" stroke-linejoin="round" stroke-width="3"/>
      <line id="Linha_177" data-name="Linha 177" x2="128.212" transform="translate(34.853 153.248)" fill="none" stroke="#a90c44" stroke-linecap="round" stroke-linejoin="round" stroke-width="3"/>
      <line id="Linha_178" data-name="Linha 178" x2="128.212" transform="translate(34.853 166.904)" fill="none" stroke="#a90c44" stroke-linecap="round" stroke-linejoin="round" stroke-width="3"/>
      <line id="Linha_179" data-name="Linha 179" x2="128.212" transform="translate(34.853 180.559)" fill="none" stroke="#a90c44" stroke-linecap="round" stroke-linejoin="round" stroke-width="3"/>
      <line id="Linha_180" data-name="Linha 180" x2="128.212" transform="translate(34.853 194.215)" fill="none" stroke="#a90c44" stroke-linecap="round" stroke-linejoin="round" stroke-width="3"/>
      <line id="Linha_181" data-name="Linha 181" x2="64.106" transform="translate(98.959 223.802)" fill="none" stroke="#a90c44" stroke-linecap="round" stroke-linejoin="round" stroke-width="3"/>
      <rect id="Retângulo_108" data-name="Retângulo 108" width="151.73" height="221.526" transform="translate(43.198 42.485)" stroke-width="3" stroke="#a90c44" stroke-linecap="round" stroke-linejoin="round" fill="#fff"/>
      <line id="Linha_182" data-name="Linha 182" x2="53.864" transform="translate(55.337 56.899)" fill="none" stroke="#a90c44" stroke-linecap="round" stroke-linejoin="round" stroke-width="3"/>
      <line id="Linha_183" data-name="Linha 183" x2="128.212" transform="translate(55.337 78.9)" fill="none" stroke="#a90c44" stroke-linecap="round" stroke-linejoin="round" stroke-width="3"/>
      <line id="Linha_184" data-name="Linha 184" x2="128.212" transform="translate(55.337 92.556)" fill="none" stroke="#a90c44" stroke-linecap="round" stroke-linejoin="round" stroke-width="3"/>
      <line id="Linha_185" data-name="Linha 185" x2="128.212" transform="translate(55.337 106.211)" fill="none" stroke="#a90c44" stroke-linecap="round" stroke-linejoin="round" stroke-width="3"/>
      <line id="Linha_186" data-name="Linha 186" x2="128.212" transform="translate(55.337 119.867)" fill="none" stroke="#a90c44" stroke-linecap="round" stroke-linejoin="round" stroke-width="3"/>
      <line id="Linha_187" data-name="Linha 187" x2="128.212" transform="translate(55.337 133.523)" fill="none" stroke="#a90c44" stroke-linecap="round" stroke-linejoin="round" stroke-width="3"/>
      <line id="Linha_188" data-name="Linha 188" x2="128.212" transform="translate(55.337 147.179)" fill="none" stroke="#a90c44" stroke-linecap="round" stroke-linejoin="round" stroke-width="3"/>
      <line id="Linha_189" data-name="Linha 189" x2="128.212" transform="translate(55.337 160.834)" fill="none" stroke="#a90c44" stroke-linecap="round" stroke-linejoin="round" stroke-width="3"/>
      <line id="Linha_190" data-name="Linha 190" x2="128.212" transform="translate(55.337 174.49)" fill="none" stroke="#a90c44" stroke-linecap="round" stroke-linejoin="round" stroke-width="3"/>
      <line id="Linha_191" data-name="Linha 191" x2="128.212" transform="translate(55.337 188.146)" fill="none" stroke="#a90c44" stroke-linecap="round" stroke-linejoin="round" stroke-width="3"/>
      <line id="Linha_192" data-name="Linha 192" x2="128.212" transform="translate(55.337 201.802)" fill="none" stroke="#a90c44" stroke-linecap="round" stroke-linejoin="round" stroke-width="3"/>
      <line id="Linha_193" data-name="Linha 193" x2="128.212" transform="translate(55.337 215.457)" fill="none" stroke="#a90c44" stroke-linecap="round" stroke-linejoin="round" stroke-width="3"/>
      <line id="Linha_194" data-name="Linha 194" x2="64.106" transform="translate(119.443 245.045)" fill="none" stroke="#a90c44" stroke-linecap="round" stroke-linejoin="round" stroke-width="3"/>
      <g id="Grupo_166" data-name="Grupo 166" transform="translate(0 26.018)">
        <line id="Linha_195" data-name="Linha 195" x2="197.16" y2="197.16" stroke-width="25" stroke="#a90c44" stroke-linecap="round" stroke-linejoin="round" fill="none"/>
        <line id="Linha_196" data-name="Linha 196" x1="197.16" y2="197.16" stroke-width="25" stroke="#a90c44" stroke-linecap="round" stroke-linejoin="round" fill="none"/>
      </g>
    </g>
  </g>
</svg>
