<svg xmlns="http://www.w3.org/2000/svg" width="75" height="75" viewBox="0 0 75 75">
  <g id="Grupo_256" data-name="Grupo 256" transform="translate(-4984.347 -63.347)">
    <circle id="Elipse_62" data-name="Elipse 62" cx="37.5" cy="37.5" r="37.5" transform="translate(4984.347 63.347)" fill="#f80"/>
    <g id="Grupo_251" data-name="Grupo 251" transform="translate(4995.697 81.096)">
      <path id="Caminho_269" data-name="Caminho 269" d="M252.315-275.941a2.732,2.732,0,0,0,2.731-2.731,2.732,2.732,0,0,0-2.731-2.731,2.732,2.732,0,0,0-2.731,2.731A2.732,2.732,0,0,0,252.315-275.941Z" transform="translate(-227.642 297.121)" fill="#fff"/>
      <path id="Caminho_270" data-name="Caminho 270" d="M275.077-273.23l-3.13-19.619a4.255,4.255,0,0,0-4.866-3.527l-.984.157c-.029-.005-.056-.014-.085-.019l-32.477-5.437a4.254,4.254,0,0,0-4.893,3.49l-1.1,6.582h-2.088a4.255,4.255,0,0,0-4.25,4.25v19.866a4.255,4.255,0,0,0,4.25,4.25h32.93a4.253,4.253,0,0,0,4.209-3.7l8.959-1.429a4.224,4.224,0,0,0,2.771-1.7A4.225,4.225,0,0,0,275.077-273.23Zm-44.513-24.633a2.3,2.3,0,0,1,2.649-1.889l32.477,5.437c.037.006.07.021.106.029.011,0,.019.01.029.012a2.3,2.3,0,0,1,1.753,2.608L264.3-272.073a2.226,2.226,0,0,1-.105.39c-.014.038-.03.074-.046.111a2.134,2.134,0,0,1-.124.253c-.021.036-.041.073-.064.109a2.232,2.232,0,0,1-.2.261c-.013.015-.024.033-.038.047a2.249,2.249,0,0,1-.274.247c-.037.029-.076.055-.114.081a2.223,2.223,0,0,1-.209.128c-.044.024-.088.048-.134.069a2.342,2.342,0,0,1-.264.1c-.032.011-.064.025-.1.034h0v-17.11a4.255,4.255,0,0,0-4.25-4.25H229.517Zm-5.112,8.209h32.93a2.3,2.3,0,0,1,2.3,2.3V-273.3l-9.27-4.978a.979.979,0,0,0-.928,0l-9.422,5.138-10.568-8.187a.974.974,0,0,0-1.117-.053l-6.226,3.927v-9.9A2.3,2.3,0,0,1,225.452-289.654Zm35.23,22.167a2.3,2.3,0,0,1-2.3,2.3h-32.93a2.3,2.3,0,0,1-2.3-2.3v-7.661l6.689-4.219,10.533,8.159a.973.973,0,0,0,1.064.085l9.517-5.19,9.672,5.193c.018.01.037.013.056.022v3.61Zm10.561-2.8-6.405,1.022c.091-.08.169-.175.253-.262s.149-.143.216-.223a4.265,4.265,0,0,0,.251-.356c.054-.08.115-.155.164-.24a4.313,4.313,0,0,0,.207-.445c.032-.076.074-.146.1-.225a4.309,4.309,0,0,0,.192-.734l3.279-19.593a4.238,4.238,0,0,0,.055-.682c0-.023,0-.047,0-.07a4.231,4.231,0,0,0-.063-.671l0-.026a4.22,4.22,0,0,0-.454-1.29,2.29,2.29,0,0,1,.984,1.541l3.13,19.619A2.3,2.3,0,0,1,271.242-270.289Z" transform="translate(-221.202 301.734)" fill="#fff"/>
    </g>
  </g>
</svg>
