<svg xmlns="http://www.w3.org/2000/svg" width="14.669" height="16.136" viewBox="0 0 14.669 16.136">
  <path id="Polígono_4" data-name="Polígono 4" d="M7.192,1.593a1,1,0,0,1,1.752,0l6.377,11.594a1,1,0,0,1-.876,1.482H1.691a1,1,0,0,1-.876-1.482Z" transform="translate(0 16.136) rotate(-90)" fill="#f80"/>
</svg>
