<svg xmlns="http://www.w3.org/2000/svg" width="390" height="264" viewBox="0 0 390 264">
  <text id="IMAGENS_PROFISSIONAIS_Agora_é_hora_de_nossa_equipe_de_gestão_de_imagem_entrar_em_ação._Um_agente_Véstor_irá_ao_local_realizar_fotos_profissionais_de_extrema_qualidade." data-name="IMAGENS PROFISSIONAIS
Agora é hora de nossa
equipe de gestão de
imagem entrar em ação.
Um agente Véstor irá
ao local realizar fotos
profissionais de extrema
qualidade." fill="#a90c44" font-size="25" font-family="Nunito-ExtraBold, Nunito" font-weight="800" letter-spacing="0.03em"><tspan x="28.3" y="25">IMAGENS PROFISSIONAIS</tspan><tspan fill="#575757" font-family="Nunito-SemiBold, Nunito" font-weight="600"><tspan x="60.337" y="55">Agora é hora de nossa</tspan><tspan x="74.05" y="85">equipe de gestão de</tspan><tspan x="51.25" y="115">imagem entrar em ação.</tspan><tspan x="68.225" y="145">Um agente Véstor irá</tspan><tspan x="67.237" y="175">ao local realizar fotos</tspan><tspan x="48.5" y="205">profissionais de extrema</tspan><tspan x="133.338" y="235">qualidade.</tspan></tspan></text>
</svg>
