<?xml version="1.0" encoding="utf-8"?>
<!-- Generator: Adobe Illustrator 16.0.0, SVG Export Plug-In . SVG Version: 6.00 Build 0)  -->
<!DOCTYPE svg PUBLIC "-//W3C//DTD SVG 1.1//EN" "http://www.w3.org/Graphics/SVG/1.1/DTD/svg11.dtd">
<svg version="1.1" id="Layer_1" xmlns="http://www.w3.org/2000/svg" xmlns:xlink="http://www.w3.org/1999/xlink" x="0px" y="0px"
	 width="340.852px" height="266.875px" viewBox="0 0 340.852 266.875" enable-background="new 0 0 340.852 266.875"
	 xml:space="preserve">
<g id="ICONE_1_COMPUTADOR" transform="translate(-22.84 -171.294)">
	<g id="Camada_1_1_" transform="translate(22.84 171.294)">
		<g id="Grupo_526">
			<g id="Grupo_444" transform="translate(205.535)">
				<g id="Grupo_442" transform="translate(2.983 2.983)">
					<path id="Retângulo_177" fill="#FFFFFF" d="M-6.144,74.431h118.642c10.559,0,19.117,8.559,19.117,19.116v70.376
						c0,10.561-8.559,19.115-19.117,19.115H-6.144c-10.559,0-19.115-8.555-19.115-19.115V93.547
						C-25.259,82.99-16.702,74.431-6.144,74.431z"/>
				</g>
				<g id="Grupo_443">
					<path id="Caminho_920" fill="#A90C44" d="M120.34,80.037c6.423,0.007,11.629,5.212,11.637,11.636v80.09
						c-0.008,6.427-5.214,11.632-11.637,11.637H-8.019c-6.423-0.005-11.628-5.214-11.635-11.637v-80.09
						c0.007-6.425,5.212-11.629,11.635-11.636L120.34,80.037 M120.34,74.792H-8.019c-9.322,0-16.879,7.557-16.879,16.881l0,0v80.09
						c0,9.326,7.557,16.884,16.879,16.884l0,0H120.34c9.323,0,16.881-7.558,16.881-16.884l0,0v-80.09
						C137.221,82.349,129.663,74.792,120.34,74.792L120.34,74.792z"/>
				</g>
			</g>
			<g id="Grupo_447" transform="translate(101.612 8.682)">
				<g id="Grupo_445" transform="translate(2.983 2.983)">
					<path id="Retângulo_178" fill="#FFFFFF" d="M10.219,73.38h167.546c12.643,0,22.89,10.248,22.89,22.889v102.476
						c0,12.641-10.247,22.888-22.89,22.888H10.219c-12.643,0-22.89-10.247-22.89-22.888V96.269
						C-12.671,83.628-2.424,73.38,10.219,73.38z"/>
				</g>
				<g id="Grupo_446">
					<path id="Caminho_921" fill="#A90C44" d="M186.567,78.983c7.976,0.012,14.437,6.477,14.446,14.453v114.108
						c-0.01,7.977-6.475,14.441-14.452,14.45H7.384c-7.977-0.009-14.441-6.474-14.451-14.45V93.436
						c0.01-7.978,6.474-14.442,14.451-14.453H186.567 M186.567,73.74H7.384c-10.877,0-19.694,8.817-19.694,19.695v114.109
						c0,10.88,8.817,19.694,19.694,19.694h179.183c10.877,0,19.692-8.814,19.692-19.694V93.436
						C206.259,82.559,197.444,73.74,186.567,73.74L186.567,73.74z"/>
				</g>
			</g>
			<g id="Grupo_450" transform="translate(0 22.361)">
				<g id="Grupo_448" transform="translate(2.984 2.984)">
					<path id="Retângulo_179" fill="#FFFFFF" d="M27.727,71.722h184.109c15.512,0,28.087,12.576,28.087,28.088l0,0v111.01
						c0,15.515-12.575,28.089-28.089,28.089H27.727c-15.513,0-28.089-12.574-28.089-28.089V99.811
						C-0.362,84.298,12.214,71.722,27.727,71.722L27.727,71.722z"/>
				</g>
				<g id="Grupo_449">
					<path id="Caminho_922" fill="#A90C44" d="M221.959,77.328c10.117,0.012,18.318,8.213,18.326,18.332v125.281
						c-0.011,10.118-8.209,18.315-18.326,18.33H23.573c-10.118-0.013-18.318-8.212-18.329-18.33V95.66
						c0.01-10.117,8.21-18.318,18.329-18.329h198.386 M221.959,72.088H23.573C10.553,72.088,0,82.641,0,95.66v125.281
						c0,13.021,10.553,23.573,23.573,23.573h198.386c13.017,0,23.571-10.552,23.571-23.573V95.66
						C245.531,82.642,234.977,72.088,221.959,72.088z"/>
				</g>
			</g>
			<g id="Grupo_525" transform="translate(16.322 33.898)">
				<g id="Grupo_451" transform="translate(135.921 77.819)">
					<rect id="Retângulo_180" x="-17.46" y="62.243" fill="#FFFFFF" width="91.708" height="79.517"/>
					<path id="Caminho_923" fill="#A90C44" d="M74.246,142.743H-17.46c-0.542,0-0.983-0.442-0.983-0.983V62.246
						c0-0.545,0.441-0.982,0.983-0.982h91.706c0.545,0,0.984,0.438,0.984,0.982v79.517
						C75.227,142.304,74.788,142.743,74.246,142.743z M-16.476,140.774h89.737V63.227h-89.737V140.774z"/>
				</g>
				<g id="Grupo_452" transform="translate(95.971 21.414)">
					<path id="Caminho_924" fill="#FF8800" d="M117.908,125.35h-94.64l-3.63-5.691l-32.255-50.582h107.82l20.408,50.582l1.663,4.12
						L117.908,125.35z"/>
					<path id="Caminho_925" fill="#A90C44" d="M117.908,126.333h-94.64c-0.335,0-0.648-0.173-0.829-0.453l-35.891-56.275
						c-0.29-0.458-0.155-1.067,0.303-1.359c0.158-0.102,0.341-0.154,0.528-0.154H95.203c0.399,0,0.762,0.244,0.913,0.615
						l22.703,56.274c0.203,0.502-0.04,1.076-0.547,1.278C118.158,126.307,118.035,126.333,117.908,126.333L117.908,126.333z
						 M23.806,124.366h92.644l-1.751-4.34L94.541,70.059H-10.826L23.806,124.366z"/>
				</g>
				<g id="Grupo_460" transform="translate(7.099)">
					<g id="Grupo_455" transform="translate(5.001 1.327)">
						<g id="Grupo_453" transform="translate(1.119 1.119)">
							<path id="Caminho_926" fill="#FFFFFF" d="M17.802,70.39l-0.459,17.552l-1.874,23.98H-2.02l-1.318-23.98l-0.232-15.943
								L17.802,70.39z"/>
						</g>
						<g id="Grupo_454">
							<path id="Caminho_927" fill="#A90C44" d="M16.588,114.025H-0.901c-0.522,0-0.955-0.408-0.983-0.931l-1.318-23.979
								l-0.233-15.984c-0.007-0.52,0.391-0.956,0.909-0.996l21.381-1.608c0.541-0.039,1.012,0.367,1.052,0.909
								c0.001,0.032,0.003,0.065,0.001,0.097l-0.458,17.555l-1.877,24.029C17.534,113.631,17.104,114.027,16.588,114.025z
								 M0.026,112.057h15.647l1.804-23.071l0.428-16.415l-19.368,1.458l0.219,15.019L0.026,112.057z"/>
						</g>
					</g>
					<g id="Grupo_458">
						<g id="Grupo_456" transform="translate(1.119 1.119)">
							<rect id="Retângulo_181" x="-2.973" y="70.55" fill="#FFFFFF" width="30.126" height="3.51"/>
						</g>
						<g id="Grupo_457">
							<path id="Caminho_928" fill="#A90C44" d="M28.273,76.164H-1.854c-0.542,0-0.983-0.441-0.983-0.984l0,0v-3.51
								c0-0.543,0.441-0.983,0.983-0.983l0,0h30.126c0.543,0,0.983,0.44,0.983,0.983l0,0v3.51
								C29.256,75.722,28.816,76.164,28.273,76.164L28.273,76.164z M-0.87,74.195h28.162v-1.541H-0.87V74.195z"/>
						</g>
					</g>
					<g id="Grupo_459" transform="translate(3.432 8.78)">
						<path id="Caminho_929" fill="#FF8800" d="M22.995,70.605l-25.265,1.49v6.942l25.265-1.125V70.605z"/>
						<path id="Caminho_930" fill="#A90C44" d="M-2.27,80.017c-0.543-0.001-0.984-0.44-0.984-0.983V72.09
							c0-0.52,0.406-0.952,0.926-0.981l25.263-1.489c0.544-0.031,1.009,0.383,1.042,0.925c0,0.02,0.001,0.038,0.001,0.057v7.301
							c0,0.526-0.415,0.96-0.94,0.982l-25.265,1.132H-2.27z M-1.286,73.021v4.985l23.298-1.039v-5.318L-1.286,73.021z"/>
					</g>
				</g>
				<g id="Grupo_461" transform="translate(7.099 21.414)">
					<path id="Caminho_931" fill="#FFFFFF" d="M111.36,99.144v99.024H-1.854V99.144L57.11,69.075l38.328,21.245L111.36,99.144z"/>
					<path id="Caminho_932" fill="#A90C44" d="M111.36,199.148H-1.854c-0.542,0-0.983-0.439-0.983-0.98V99.144
						c-0.001-0.371,0.208-0.711,0.537-0.88l58.966-30.068c0.29-0.147,0.636-0.141,0.922,0.017l54.25,30.068
						c0.312,0.174,0.505,0.504,0.505,0.861v99.026C112.342,198.709,111.903,199.148,111.36,199.148L111.36,199.148z M-0.87,197.181
						h111.247V99.723l-53.285-29.53L-0.87,99.745V197.181z"/>
				</g>
				<g id="Grupo_471" transform="translate(7.099 61.455)">
					<g id="Grupo_464" transform="translate(128.819)">
						<g id="Grupo_462" transform="translate(1.119 1.119)">
							<rect id="Retângulo_182" x="-18.578" y="63.106" fill="#FFFFFF" width="5.323" height="93.902"/>
						</g>
						<g id="Grupo_463">
							<path id="Caminho_933" fill="#A90C44" d="M-12.136,159.11h-5.323c-0.543,0-0.983-0.442-0.983-0.983V64.225
								c0-0.544,0.44-0.983,0.983-0.983h5.323c0.542,0,0.982,0.439,0.982,0.983v93.902C-11.154,158.668-11.595,159.11-12.136,159.11
								z M-16.477,157.143h3.356V65.209h-3.356V157.143z"/>
						</g>
					</g>
					<g id="Grupo_467" transform="translate(0 95.906)">
						<g id="Grupo_465" transform="translate(1.119 1.118)">
							<rect id="Retângulo_183" x="-2.973" y="51.49" fill="#FFFFFF" width="204.921" height="9.61"/>
						</g>
						<g id="Grupo_466">
							<path id="Caminho_934" fill="#A90C44" d="M203.068,63.201H-1.854c-0.542,0-0.983-0.442-0.983-0.983v-9.61
								c0-0.544,0.441-0.986,0.983-0.986h204.921c0.545,0,0.984,0.442,0.984,0.986v9.61
								C204.049,62.759,203.611,63.201,203.068,63.201z M-0.87,61.234h202.955v-7.645H-0.87V61.234z"/>
						</g>
					</g>
					<g id="Grupo_470" transform="translate(0 101.374)">
						<g id="Grupo_468" transform="translate(1.119 1.119)">
							<rect id="Retângulo_184" x="-2.973" y="50.825" fill="#FFFFFF" width="204.921" height="4.806"/>
						</g>
						<g id="Grupo_469">
							<path id="Caminho_935" fill="#A90C44" d="M203.068,57.733H-1.854c-0.542,0-0.983-0.442-0.983-0.983v-4.806
								c0-0.544,0.441-0.986,0.983-0.986h204.921c0.545,0,0.984,0.442,0.984,0.986v4.806
								C204.052,57.291,203.612,57.733,203.068,57.733z M-0.87,55.766h202.955v-2.837H-0.87V55.766z"/>
						</g>
					</g>
				</g>
				<g id="Grupo_478" transform="translate(45.174 89.71)">
					<g id="Grupo_472" transform="translate(1.342)">
						<path id="Caminho_936" fill="#A90C44" d="M-7.612,59.819l17.176,0.264v37.246l-16.182-1.74L-7.612,59.819z"/>
					</g>
					<g id="Grupo_475" transform="translate(3.162 2.742)">
						<g id="Grupo_473" transform="translate(1.119 1.119)">
							<path id="Caminho_937" fill="#FFFFFF" d="M4.047,59.372v30.698l-1.28,0.039l-8.811,0.252l-1.185,0.034l-0.229-9.571
								l-0.127-5.363l-0.089-3.831l-0.128-5.369l-0.164-6.909l5.829,0.009l4.532,0.006L4.047,59.372z"/>
						</g>
						<g id="Grupo_474">
							<path id="Caminho_938" fill="#A90C44" d="M-6.113,92.498c-0.534,0-0.971-0.427-0.983-0.963l-0.736-31.044
								c-0.014-0.541,0.418-0.992,0.962-1.006c0.007,0,0.012,0,0.02,0l0,0l12.013,0.023c0.542,0,0.979,0.441,0.979,0.982V91.19
								c0,0.533-0.422,0.967-0.953,0.981l-11.277,0.324L-6.113,92.498z M-5.843,61.455l0.691,29.05l9.331-0.269V61.472
								L-5.843,61.455z"/>
						</g>
					</g>
					<g id="Grupo_476" transform="translate(0 40.696)">
						<rect id="Retângulo_185" x="-7.449" y="54.89" fill="#A90C44" width="20.519" height="3.704"/>
					</g>
					<g id="Grupo_477" transform="translate(3.014 19.092)">
						<rect id="Retângulo_186" x="-7.815" y="57.505" fill="#A90C44" width="15.152" height="3.23"/>
					</g>
				</g>
				<g id="Grupo_485" transform="translate(19.216 89.71)">
					<g id="Grupo_479" transform="translate(1.342)">
						<path id="Caminho_939" fill="#A90C44" d="M-4.468,59.819l17.177,0.264v37.246l-16.183-1.74L-4.468,59.819z"/>
					</g>
					<g id="Grupo_482" transform="translate(3.162 2.742)">
						<g id="Grupo_480" transform="translate(1.119 1.119)">
							<path id="Caminho_940" fill="#FFFFFF" d="M7.189,59.372v30.698L5.91,90.11l-8.813,0.252l-1.184,0.034l-0.228-9.571
								l-0.128-5.363l-0.088-3.831l-0.128-5.369l-0.164-6.909l5.829,0.009l4.532,0.006L7.189,59.372z"/>
						</g>
						<g id="Grupo_481">
							<path id="Caminho_941" fill="#A90C44" d="M-2.968,92.498c-0.535,0-0.971-0.427-0.984-0.963l-0.736-31.044
								c-0.013-0.541,0.417-0.992,0.962-1.006c0.007,0,0.014,0,0.021,0l0,0l12.014,0.023c0.542,0,0.979,0.441,0.979,0.982V91.19
								c0,0.533-0.423,0.967-0.954,0.981l-11.277,0.324L-2.968,92.498z M-2.698,61.455l0.69,29.05l9.331-0.269V61.472L-2.698,61.455
								z"/>
						</g>
					</g>
					<g id="Grupo_483" transform="translate(0 40.696)">
						<rect id="Retângulo_187" x="-4.305" y="54.89" fill="#A90C44" width="20.52" height="3.704"/>
					</g>
					<g id="Grupo_484" transform="translate(3.014 19.092)">
						<rect id="Retângulo_188" x="-4.671" y="57.505" fill="#A90C44" width="15.153" height="3.23"/>
					</g>
				</g>
				<g id="Grupo_486" transform="translate(78.882 64.734)">
					<path id="Caminho_942" fill="#FF8800" d="M40.357,80.734L14.386,63.828L-10.55,81.963v63.271h50.907V80.734z"/>
					<path id="Caminho_943" fill="#A90C44" d="M40.357,146.218h-50.91c-0.542,0-0.982-0.438-0.982-0.983V81.963
						c0.001-0.314,0.151-0.609,0.404-0.793l24.935-18.134c0.33-0.241,0.776-0.25,1.116-0.029l25.969,16.91
						c0.279,0.178,0.447,0.488,0.447,0.822v64.498C41.335,145.78,40.898,146.218,40.357,146.218z M-9.564,144.252h48.94v-62.98
						L14.416,65.026L-9.568,82.465L-9.564,144.252z"/>
				</g>
				<g id="Grupo_487" transform="translate(85.557 73.212)">
					<path id="Caminho_944" fill="#FFFFFF" d="M27.81,136.708h-39.167V79.234L5.874,62.8l23.37,13.518L27.81,136.708z"/>
					<path id="Caminho_945" fill="#A90C44" d="M27.814,137.69h-39.171c-0.543,0-0.983-0.442-0.983-0.979V79.237
						c0-0.267,0.11-0.524,0.304-0.708L5.196,62.094c0.316-0.303,0.792-0.358,1.171-0.142l23.369,13.516
						c0.311,0.182,0.5,0.519,0.49,0.876l-1.429,60.39C28.782,137.266,28.347,137.69,27.814,137.69z M-10.374,135.722h37.229
						l1.393-58.846L6.021,64.02l-16.394,15.645L-10.374,135.722z"/>
				</g>
				<g id="Grupo_488" transform="translate(92.28 98.453)">
					<path id="Caminho_946" fill="#A90C44" d="M12.567,111.516l1.964-52.756h-27.685l1.446,52.756H12.567z"/>
				</g>
				<g id="Grupo_489" transform="translate(96.651 102.417)">
					<path id="Caminho_947" fill="#FFFFFF" d="M5.334,59.262l-0.203,6.894l-0.119,4.067L4.9,74.143l-0.052,1.82l-0.113,3.918
						l-0.677,23.199h-15.815l-0.182-8.491l-0.088-3.746l-0.034-1.741l-0.087-3.748l-0.079-3.893l-0.272-12.463l-0.208-9.737H5.334z"
						/>
					<path id="Caminho_948" fill="#A90C44" d="M4.06,104.064h-15.819c-0.536,0-0.971-0.428-0.983-0.963l-0.943-43.817
						c-0.012-0.54,0.417-0.992,0.96-1.003c0.008,0,0.015,0,0.023,0H5.334c0.543,0,0.983,0.436,0.983,0.98c0,0.009,0,0.021,0,0.032
						L5.04,103.113C5.024,103.64,4.591,104.064,4.06,104.064z M-10.793,102.098H3.105l1.22-41.854h-16.024L-10.793,102.098z"/>
				</g>
				<g id="Grupo_490" transform="translate(96.791 125.73)">
					<rect id="Retângulo_189" x="-13.703" y="55.455" fill="#A90C44" width="19.302" height="3.43"/>
				</g>
				<g id="Grupo_491" transform="translate(106.284 102.353)">
					<rect id="Retângulo_190" x="-14.853" y="58.29" fill="#A90C44" width="2.647" height="22.093"/>
				</g>
				<g id="Grupo_492" transform="translate(7.099 21.414)">
					<path id="Caminho_949" fill="#FFFFFF" d="M116.683,104.272v16.743l-5.323-3.473L56.535,81.79l-58.389,34.74V99.144
						L57.11,69.076L116.683,104.272z"/>
					<path id="Caminho_950" fill="#A90C44" d="M116.683,121.993c-0.191,0-0.377-0.056-0.538-0.161L56.511,82.949l-57.862,34.427
						c-0.465,0.277-1.071,0.126-1.348-0.343c-0.089-0.151-0.138-0.324-0.138-0.501V99.144c-0.001-0.371,0.208-0.711,0.537-0.88
						l58.966-30.068c0.3-0.152,0.656-0.141,0.946,0.03l59.571,35.194c0.3,0.177,0.484,0.498,0.484,0.846v16.741
						c0,0.545-0.44,0.983-0.984,0.983V121.993z M56.537,80.806c0.19,0.002,0.376,0.057,0.538,0.162l58.626,38.23v-14.37
						l-58.62-34.63L-0.87,99.746v15.056l56.902-33.857C56.185,80.854,56.359,80.808,56.537,80.806z"/>
				</g>
				<g id="Grupo_493" transform="translate(0 6.546)">
					<path id="Caminho_951" fill="#FF8800" d="M63.637,70.877l-64.631,39.812v15.607l64.631-39.812l64.63,39.812v-15.604
						L63.637,70.877z"/>
					<path id="Caminho_952" fill="#A90C44" d="M128.267,127.286c-0.18,0-0.359-0.051-0.515-0.146L63.637,87.641l-64.116,39.499
						c-0.462,0.284-1.068,0.143-1.353-0.322c-0.097-0.153-0.146-0.334-0.146-0.516v-15.607c0.001-0.341,0.177-0.658,0.469-0.837
						L63.125,70.04c0.316-0.196,0.715-0.196,1.032,0l64.629,39.817c0.291,0.178,0.47,0.495,0.47,0.836V126.3
						c0,0.543-0.438,0.983-0.982,0.983c0,0-0.001,0-0.002,0L128.267,127.286z M63.637,85.503c0.183-0.001,0.36,0.05,0.516,0.146
						l63.129,38.895v-13.299L63.634,72.033l-63.647,39.211v13.299l63.138-38.895C63.278,85.554,63.456,85.503,63.637,85.503z"/>
				</g>
				<g id="Grupo_498" transform="translate(59.063 35.883)">
					<g id="Grupo_496">
						<g id="Grupo_494" transform="translate(0.928 0.928)">
							<circle id="Elipse_90" fill="#FF8800" cx="3.646" cy="79.118" r="12.724"/>
						</g>
						<g id="Grupo_495">
							<path id="Caminho_953" fill="#A90C44" d="M4.574,93.753c-7.573,0-13.71-6.139-13.71-13.71c0-7.573,6.137-13.71,13.71-13.71
								c7.572,0,13.71,6.137,13.71,13.71C18.278,87.612,12.144,93.748,4.574,93.753z M4.574,68.306
								c-6.484,0-11.74,5.257-11.74,11.74s5.256,11.738,11.74,11.738c6.484,0,11.74-5.255,11.74-11.738
								C16.306,73.565,11.054,68.314,4.574,68.306z"/>
						</g>
					</g>
					<g id="Grupo_497" transform="translate(3.845 3.845)">
						<circle id="Elipse_91" fill="#FFFFFF" cx="0.729" cy="76.202" r="9.345"/>
						<path id="Caminho_954" fill="#A90C44" d="M0.729,86.528c-5.704,0-10.327-4.624-10.327-10.326
							c0-5.704,4.623-10.327,10.327-10.327c5.704,0,10.329,4.623,10.329,10.327C11.05,81.902,6.429,86.523,0.729,86.528z
							 M0.729,67.839c-4.617,0-8.361,3.744-8.361,8.361s3.744,8.36,8.361,8.36c4.617,0,8.361-3.743,8.361-8.36
							c-0.006-4.615-3.747-8.354-8.361-8.359V67.839z"/>
					</g>
				</g>
				<g id="Grupo_501" transform="translate(152.377 99.335)">
					<g id="Grupo_499" transform="translate(1.119 1.119)">
						<rect id="Retângulo_191" x="-20.572" y="58.518" fill="#FFFFFF" width="67.309" height="60.61"/>
					</g>
					<g id="Grupo_500">
						<path id="Caminho_955" fill="#A90C44" d="M47.856,121.227h-67.309c-0.542,0-0.982-0.439-0.982-0.98v-60.61
							c0-0.544,0.44-0.983,0.982-0.983h67.309c0.544,0,0.984,0.439,0.984,0.983v60.61C48.84,120.788,48.4,121.227,47.856,121.227
							L47.856,121.227z M-18.471,119.26h65.342V60.619H-18.47L-18.471,119.26z"/>
					</g>
				</g>
				<g id="Grupo_524" transform="translate(157.357 104.916)">
					<g id="Grupo_503" transform="translate(0 12.128)">
						<g id="Grupo_502">
							<rect id="Retângulo_192" x="-21.039" y="56.506" fill="#A90C44" width="60.521" height="3.395"/>
						</g>
					</g>
					<g id="Grupo_505" transform="translate(0 18.192)">
						<g id="Grupo_504">
							<rect id="Retângulo_193" x="-21.039" y="55.774" fill="#A90C44" width="60.521" height="3.395"/>
						</g>
					</g>
					<g id="Grupo_507" transform="translate(0 24.256)">
						<g id="Grupo_506">
							<rect id="Retângulo_194" x="-21.039" y="55.038" fill="#A90C44" width="60.521" height="3.395"/>
						</g>
					</g>
					<g id="Grupo_509" transform="translate(0 30.32)">
						<g id="Grupo_508">
							<rect id="Retângulo_195" x="-21.039" y="54.302" fill="#A90C44" width="60.521" height="3.395"/>
						</g>
					</g>
					<g id="Grupo_511" transform="translate(0 36.384)">
						<g id="Grupo_510">
							<rect id="Retângulo_196" x="-21.039" y="53.57" fill="#A90C44" width="60.521" height="3.392"/>
						</g>
					</g>
					<g id="Grupo_513" transform="translate(0 42.448)">
						<g id="Grupo_512">
							<rect id="Retângulo_197" x="-21.039" y="52.835" fill="#A90C44" width="60.521" height="3.394"/>
						</g>
					</g>
					<g id="Grupo_515" transform="translate(0 48.512)">
						<g id="Grupo_514">
							<rect id="Retângulo_198" x="-21.039" y="52.102" fill="#A90C44" width="60.521" height="3.392"/>
						</g>
					</g>
					<g id="Grupo_517" transform="translate(0 54.576)">
						<g id="Grupo_516">
							<rect id="Retângulo_199" x="-21.039" y="51.366" fill="#A90C44" width="60.521" height="3.392"/>
						</g>
					</g>
					<g id="Grupo_519" transform="translate(0 60.64)">
						<g id="Grupo_518">
							<rect id="Retângulo_200" x="-21.039" y="50.631" fill="#A90C44" width="60.521" height="3.395"/>
						</g>
					</g>
					<g id="Grupo_521" transform="translate(0 6.064)">
						<g id="Grupo_520">
							<rect id="Retângulo_201" x="-21.039" y="57.245" fill="#A90C44" width="60.521" height="3.391"/>
						</g>
					</g>
					<g id="Grupo_523" transform="translate(0)">
						<g id="Grupo_522">
							<rect id="Retângulo_202" x="-21.039" y="57.977" fill="#A90C44" width="60.521" height="3.392"/>
						</g>
					</g>
				</g>
			</g>
		</g>
	</g>
</g>
</svg>
