<svg xmlns="http://www.w3.org/2000/svg" width="37.841" height="37.641" viewBox="0 0 37.841 37.641">
  <path id="Caminho_53" data-name="Caminho 53" d="M-652.924-427.388a11.326,11.326,0,0,0-11.326,11.326,11.33,11.33,0,0,0,9,11.087v5.99a2.326,2.326,0,0,0,2.326,2.326h0a2.326,2.326,0,0,0,2.326-2.326v-5.99a11.33,11.33,0,0,0,9-11.087A11.326,11.326,0,0,0-652.924-427.388Zm0,19.037a7.711,7.711,0,0,1-7.711-7.711,7.711,7.711,0,0,1,7.711-7.711,7.711,7.711,0,0,1,7.711,7.711A7.711,7.711,0,0,1-652.924-408.351Z" transform="matrix(0.695, -0.719, 0.719, 0.695, 768.864, -164.638)" fill="#fff"/>
</svg>
