<svg xmlns="http://www.w3.org/2000/svg" width="11" height="10" viewBox="0 0 11 10">
  <path id="Polígono_1" data-name="Polígono 1" d="M4.624,1.593a1,1,0,0,1,1.752,0l3.809,6.925A1,1,0,0,1,9.309,10H1.691A1,1,0,0,1,.815,8.518Z" transform="translate(11 10) rotate(180)" fill="#f80"/>
</svg>
