<svg xmlns="http://www.w3.org/2000/svg" width="67" height="74" viewBox="0 0 67 74">
  <path id="Polígono_5" data-name="Polígono 5" d="M28.246,15.852a10,10,0,0,1,17.508,0L65.808,52.166A10,10,0,0,1,57.054,67H16.946A10,10,0,0,1,8.192,52.166Z" transform="translate(67) rotate(90)" fill="#f80"/>
</svg>
