<svg xmlns="http://www.w3.org/2000/svg" width="393.036" height="175.32" viewBox="0 0 393.036 175.32">
  <g id="ICONE_5_DINHEIRO_NUVEM" data-name="ICONE 5 DINHEIRO NUVEM" transform="translate(-32.927 -201.22)">
    <g id="Camada_1" data-name="Camada 1" transform="translate(34.427 201.22)">
      <path id="Caminho_202" data-name="Caminho 202" d="M152.416,360.89a40.83,40.83,0,0,1,45.174-35.966,57.812,57.812,0,0,1,19.91-32.714,65.05,65.05,0,0,0-123.633,35.52l.021.16a32.933,32.933,0,0,0-24.768,26.935A22.954,22.954,0,0,0,34.427,365.58H152.16A40.894,40.894,0,0,1,152.416,360.89Z" transform="translate(-34.427 -209.199)" fill="none" stroke="#fff" stroke-linecap="round" stroke-linejoin="round" stroke-width="3"/>
      <path id="Caminho_203" data-name="Caminho 203" d="M428.057,369.958a17.335,17.335,0,0,0-8.815,2.338,26.711,26.711,0,0,0-37.011-16.426A41.259,41.259,0,0,0,331.8,330.228a57.855,57.855,0,0,0-113.369-.912,40.837,40.837,0,0,0-41.484,58.091l268.321,0A17.331,17.331,0,0,0,428.057,369.958Z" transform="translate(-55.27 -213.59)" fill="none" stroke="#fff" stroke-linecap="round" stroke-linejoin="round" stroke-width="3"/>
      <path id="Caminho_28" data-name="Caminho 28" d="M471.781,260.82a21.737,21.737,0,0,0-33.9-21.859,32.965,32.965,0,0,0-65.146,9.7A14.495,14.495,0,0,0,351.9,260.82Z" transform="translate(-82.178 -202.885)" fill="none" stroke="#fff" stroke-linecap="round" stroke-linejoin="round" stroke-width="3"/>
      <path id="Caminho_204" data-name="Caminho 204" d="M431.775,364.772a7.451,7.451,0,0,0,3.2,1.692,34.111,34.111,0,0,0,4.477.7q1.7.175,2.59.325a4.424,4.424,0,0,1,1.537.535,1.5,1.5,0,0,1,.753,1.115,2.043,2.043,0,0,1-.685,1.968,5.31,5.31,0,0,1-2.709,1.025,11.16,11.16,0,0,1-2.868.072,13.048,13.048,0,0,1-3.028-.758,6.292,6.292,0,0,0-1.156-.361,2.629,2.629,0,0,0-.855-.015,1.822,1.822,0,0,0-1.33.98,2.8,2.8,0,0,0-.361,1.61c3.481-.35,9.329-.379,14.18,2.333a9.208,9.208,0,0,0,3.914-3.027,6.7,6.7,0,0,0,1.216-5.087,6.069,6.069,0,0,0-1.785-3.751,7.124,7.124,0,0,0-3.167-1.7,29.809,29.809,0,0,0-4.412-.623,17.192,17.192,0,0,1-3.679-.59,1.8,1.8,0,0,1-1.361-1.5,2.141,2.141,0,0,1,.7-1.971,4.4,4.4,0,0,1,2.438-1.056,7.745,7.745,0,0,1,2.073-.042,9.061,9.061,0,0,1,1.895.429q.9.311,1.164.413a10.081,10.081,0,0,0,1.19.356,2.333,2.333,0,0,0,.821.02,1.869,1.869,0,0,0,1.347-.983,2.8,2.8,0,0,0,.357-1.9,2.7,2.7,0,0,0-.444-1.2,2.6,2.6,0,0,0-1.025-.789,14.941,14.941,0,0,0-5.96-1.353l-.244-1.635a2.347,2.347,0,0,0-.936-1.638,2.443,2.443,0,0,0-1.855-.4,2.418,2.418,0,0,0-1.638.937,2.328,2.328,0,0,0-.439,1.826l.259,1.738a9.646,9.646,0,0,0-4.743,3.479,6.861,6.861,0,0,0-1.229,5.124A5.883,5.883,0,0,0,431.775,364.772Z" transform="translate(-93.909 -223.287)" fill="#f80"/>
      <path id="Caminho_205" data-name="Caminho 205" d="M428.027,378.649s15.7-3.67,22.429,6.729" transform="translate(-93.628 -227.812)" fill="none" stroke="#fff" stroke-linecap="round" stroke-linejoin="round" stroke-width="3"/>
      <g id="Grupo_168" data-name="Grupo 168" transform="translate(219.199 42.357)">
        <path id="Caminho_206" data-name="Caminho 206" d="M324.022,263.438a3.837,3.837,0,0,0-1.14-1.538,22.11,22.11,0,0,0-7.944-4.332l.313-2.426a3.469,3.469,0,0,0-.673-2.712,3.915,3.915,0,0,0-5.192-.643,3.443,3.443,0,0,0-1.362,2.422l-.333,2.581a14.284,14.284,0,0,0-8.161,3.041,10.163,10.163,0,0,0-3.817,6.8,8.7,8.7,0,0,0,1.064,5.99,11.014,11.014,0,0,0,3.878,3.7,50.086,50.086,0,0,0,6.094,2.807q2.346.934,3.558,1.509a6.563,6.563,0,0,1,1.973,1.384,2.217,2.217,0,0,1,.623,1.89,3.025,3.025,0,0,1-1.77,2.528,7.862,7.862,0,0,1-4.273.367,16.5,16.5,0,0,1-4.115-1.056,19.283,19.283,0,0,1-4.007-2.3,9.394,9.394,0,0,0-1.5-.981,3.963,3.963,0,0,0-1.212-.367,2.7,2.7,0,0,0-2.29.859,4.222,4.222,0,0,0-1.25,2.568,4.068,4.068,0,0,0,.141,1.96,3.526,3.526,0,0,0,1.15,1.461c.455.385.939.743,1.436,1.091,4.935-1.742,13.541-3.308,20.409,3.121a12.357,12.357,0,0,0,3-1.739,9.916,9.916,0,0,0,3.785-6.755,8.987,8.987,0,0,0-1.027-6.064,10.552,10.552,0,0,0-3.827-3.7,43.937,43.937,0,0,0-6.033-2.669,25.47,25.47,0,0,1-5-2.324,2.665,2.665,0,0,1-1.332-2.692,3.169,3.169,0,0,1,1.8-2.524,6.516,6.516,0,0,1,3.9-.52,11.54,11.54,0,0,1,2.97.777,13.472,13.472,0,0,1,2.525,1.376q1.156.807,1.49,1.059a15.1,15.1,0,0,0,1.552.987,3.48,3.48,0,0,0,1.161.36,2.769,2.769,0,0,0,2.315-.856,4.144,4.144,0,0,0,1.275-2.564A4,4,0,0,0,324.022,263.438Z" transform="translate(-292.432 -251.076)" fill="#f80"/>
      </g>
      <path id="Caminho_207" data-name="Caminho 207" d="M291.028,298.427S310.6,287.009,320.39,306.7" transform="translate(-73.022 -215.345)" fill="none" stroke="#fff" stroke-linecap="round" stroke-linejoin="round" stroke-width="3"/>
      <path id="Caminho_208" data-name="Caminho 208" d="M258.914,336.664a10.236,10.236,0,0,0,4.431,2.279,46.511,46.511,0,0,0,6.171.9q2.337.214,3.568.409a6.091,6.091,0,0,1,2.123.714,2.06,2.06,0,0,1,1.053,1.522,2.823,2.823,0,0,1-.625,2.4,13.439,13.439,0,0,1,3.958,1.144,30.929,30.929,0,0,1,3.523,1.935c.073-.1.152-.189.223-.289a9.219,9.219,0,0,0,1.595-7.018,8.355,8.355,0,0,0-2.512-5.135,9.8,9.8,0,0,0-4.385-2.286,40.8,40.8,0,0,0-6.08-.79,23.639,23.639,0,0,1-5.07-.756,2.477,2.477,0,0,1-1.9-2.048,2.944,2.944,0,0,1,.935-2.722,6.052,6.052,0,0,1,3.339-1.49,10.721,10.721,0,0,1,2.852-.09,12.635,12.635,0,0,1,2.613.562q1.243.415,1.607.551a13.7,13.7,0,0,0,1.643.471,3.234,3.234,0,0,0,1.13.015,2.568,2.568,0,0,0,1.838-1.373,3.845,3.845,0,0,0,.462-2.621,3.713,3.713,0,0,0-.63-1.64,3.568,3.568,0,0,0-1.421-1.07,20.555,20.555,0,0,0-8.221-1.77l-.359-2.245a3.228,3.228,0,0,0-1.314-2.24,3.639,3.639,0,0,0-4.8.793,3.2,3.2,0,0,0-.576,2.518l.382,2.389A13.27,13.27,0,0,0,258,324.536a9.45,9.45,0,0,0-1.612,7.069A8.089,8.089,0,0,0,258.914,336.664Z" transform="translate(-67.792 -218.093)" fill="#f80"/>
      <path id="Caminho_209" data-name="Caminho 209" d="M292.963,366.725s-1.319-11.243-13.876-15.113c-16.056-4.951-26.2,8.788-26.2,8.788" transform="translate(-67.286 -223.678)" fill="none" stroke="#fff" stroke-linecap="round" stroke-linejoin="round" stroke-width="3"/>
      <path id="Caminho_210" data-name="Caminho 210" d="M120.44,317.166A10.218,10.218,0,0,0,125,319.142a46.525,46.525,0,0,0,6.2.486q2.341.059,3.58.171a6.077,6.077,0,0,1,2.161.57,2.058,2.058,0,0,1,1.149,1.445,2.806,2.806,0,0,1-.729,2.768,7.291,7.291,0,0,1-3.6,1.691,15.3,15.3,0,0,1-3.92.4,17.835,17.835,0,0,1-4.225-.716,8.78,8.78,0,0,0-1.621-.372,3.686,3.686,0,0,0-1.172.07,2.5,2.5,0,0,0-1.717,1.483,3.912,3.912,0,0,0-.263,2.636,5.3,5.3,0,0,0,.234.754c3.64-2.48,11.7-6.3,22.14-1.353a11.54,11.54,0,0,0,2.265-2.665,9.2,9.2,0,0,0,1.124-7.093,8.339,8.339,0,0,0-2.842-4.946,9.788,9.788,0,0,0-4.516-1.987,40.84,40.84,0,0,0-6.107-.384,23.634,23.634,0,0,1-5.1-.417,2.473,2.473,0,0,1-2.024-1.914,2.94,2.94,0,0,1,.752-2.773,6.039,6.039,0,0,1,3.226-1.7,10.673,10.673,0,0,1,2.834-.278,12.482,12.482,0,0,1,2.639.386q1.264.331,1.637.443a13.8,13.8,0,0,0,1.667.361,3.212,3.212,0,0,0,1.127-.059,2.566,2.566,0,0,0,1.739-1.488,3.839,3.839,0,0,0,.286-2.641,3.7,3.7,0,0,0-.735-1.59,3.56,3.56,0,0,0-1.487-.973,20.5,20.5,0,0,0-8.3-1.218l-.506-2.211a3.223,3.223,0,0,0-1.457-2.144,3.633,3.633,0,0,0-4.725,1.107,3.2,3.2,0,0,0-.407,2.546l.539,2.353a13.241,13.241,0,0,0-6.125,5.267,9.43,9.43,0,0,0-1.138,7.145A8.081,8.081,0,0,0,120.44,317.166Z" transform="translate(-46.896 -215.087)" fill="#f80"/>
      <path id="Caminho_211" data-name="Caminho 211" d="M119.249,338.116s12.271-12.27,29.381,0" transform="translate(-47.185 -220.99)" fill="none" stroke="#fff" stroke-linecap="round" stroke-linejoin="round" stroke-width="3"/>
      <path id="Caminho_212" data-name="Caminho 212" d="M422.508,215.74a6.527,6.527,0,0,0,2.743,1.6,29.8,29.8,0,0,0,3.9.784q1.481.217,2.259.382a3.884,3.884,0,0,1,1.327.528,1.312,1.312,0,0,1,.618,1.005,1.792,1.792,0,0,1-.674,1.7,4.672,4.672,0,0,1-2.414.8,9.806,9.806,0,0,1-2.518-.046,11.411,11.411,0,0,1-2.626-.778,5.543,5.543,0,0,0-1-.36,2.338,2.338,0,0,0-.749-.046,1.6,1.6,0,0,0-1.2.809,2.505,2.505,0,0,0-.369,1.652,2.416,2.416,0,0,0,.349,1.111,2.1,2.1,0,0,0,.863.686c.146.073.306.127.455.195,5.491-2.623,9.488-2,12.252-.449a7.483,7.483,0,0,0,1.963-1.723,5.88,5.88,0,0,0,1.257-4.414,5.328,5.328,0,0,0-1.423-3.357,6.254,6.254,0,0,0-2.714-1.607,26.148,26.148,0,0,0-3.844-.713,15.114,15.114,0,0,1-3.2-.655,1.581,1.581,0,0,1-1.137-1.37,1.876,1.876,0,0,1,.69-1.7,3.859,3.859,0,0,1,2.178-.834,6.849,6.849,0,0,1,1.819.041,8.026,8.026,0,0,1,1.645.448q.777.307,1.005.407a8.948,8.948,0,0,0,1.03.357,2.085,2.085,0,0,0,.72.048,1.64,1.64,0,0,0,1.217-.811,2.451,2.451,0,0,0,.385-1.653,2.377,2.377,0,0,0-.345-1.065,2.27,2.27,0,0,0-.868-.731,13.1,13.1,0,0,0-5.175-1.41l-.151-1.443a2.059,2.059,0,0,0-.76-1.471,2.321,2.321,0,0,0-3.082.34,2.043,2.043,0,0,0-.454,1.584l.161,1.534a8.459,8.459,0,0,0-4.29,2.872,6.021,6.021,0,0,0-1.27,4.446A5.158,5.158,0,0,0,422.508,215.74Z" transform="translate(-92.576 -201.22)" fill="#f80"/>
      <path id="Caminho_213" data-name="Caminho 213" d="M440.845,234.966s-5.3-12.642-19.778-3.874" transform="translate(-92.581 -205.247)" fill="none" stroke="#fff" stroke-linecap="round" stroke-linejoin="round" stroke-width="3"/>
    </g>
  </g>
</svg>
