<svg xmlns="http://www.w3.org/2000/svg" width="340.852" height="266.876" viewBox="0 0 340.852 266.876">
  <g id="ICONE_3_HANDSHAKE" data-name="ICONE 3 HANDSHAKE" transform="translate(-65.261 -112.606)">
    <g id="Camada_1" data-name="Camada 1" transform="translate(67.382 114.107)">
      <g id="Grupo_165" data-name="Grupo 165">
        <path id="Caminho_181" data-name="Caminho 181" d="M152.142,295.33" transform="translate(-86.116 -154.161)" fill="#fff" stroke="#a90c44" stroke-linecap="round" stroke-linejoin="round" stroke-width="3"/>
        <path id="Caminho_182" data-name="Caminho 182" d="M67.382,215.485c30.624,30.624,66.026,50.388,66.026,50.388s32.036,56.47,74.063,64.94c0,0,20.85,14.987,38.117,11.077s4.235-12.706,4.235-12.706,20.2,4.887,20.85-9.774c0,0,17.918-.109,15.312-15.2,0,0,21.177-1.086,14.987-13.465,0,0,26.3-25.686,25.737-31.276l-29.972-41.7s-35.511,0-43-3.258-48.216-6.841-58.641,10.1A101.335,101.335,0,0,1,156,215.16s-56.252-39.2-76.234-53.1" transform="translate(-67.382 -124.705)" fill="#fff" stroke="#a90c44" stroke-linecap="round" stroke-linejoin="round" stroke-width="3"/>
        <path id="Caminho_183" data-name="Caminho 183" d="M226.581,242.878s-21.245,26.353-12.326,31.52c15.746,9.123,29.321-18.026,29.1-21.936a17.7,17.7,0,0,0,11.511,0s54.95,24.325,78.081,56.144" transform="translate(-99.361 -142.568)" fill="#fff" stroke="#a90c44" stroke-linecap="round" stroke-linejoin="round" stroke-width="3"/>
        <path id="Caminho_184" data-name="Caminho 184" d="M372.463,215.8l-13.439,5.479s2.606,38.226,36.922,59.945c0,0,29.1-20.85,33.013-21.719S402.9,223.89,402.9,223.89C385.521,216.94,372.463,215.8,372.463,215.8Z" transform="translate(-131.841 -136.584)" fill="#f80" stroke="#a90c44" stroke-linecap="round" stroke-linejoin="round" stroke-width="3"/>
        <path id="Caminho_185" data-name="Caminho 185" d="M308,317.914s18.027,13.248,31.167,20.742" transform="translate(-120.564 -159.153)" fill="#fff" stroke="#a90c44" stroke-linecap="round" stroke-linejoin="round" stroke-width="3"/>
        <path id="Caminho_186" data-name="Caminho 186" d="M288.67,339.383s20.705,14.987,30.913,19.221" transform="translate(-116.292 -163.898)" fill="#fff" stroke="#a90c44" stroke-linecap="round" stroke-linejoin="round" stroke-width="3"/>
        <path id="Caminho_187" data-name="Caminho 187" d="M272.312,364.058s16.066,9,22.805,9.774" transform="translate(-112.676 -169.352)" fill="#fff" stroke="#a90c44" stroke-linecap="round" stroke-linejoin="round" stroke-width="3"/>
        <path id="Caminho_188" data-name="Caminho 188" d="M171.332,317.81s-12.217,6.462-6.515,14.932,20-3.921,16.289-11.565C178.5,315.8,171.332,317.81,171.332,317.81Z" transform="translate(-88.582 -159.048)" fill="#fff" stroke="#a90c44" stroke-linecap="round" stroke-linejoin="round" stroke-width="3"/>
        <path id="Caminho_189" data-name="Caminho 189" d="M189.328,334.621s-12.625,9.154-4.561,17.43c6.19,6.353,20.672-8.714,20.672-8.714s15-10.832,5.065-19.14C203.771,318.568,189.328,334.621,189.328,334.621Z" transform="translate(-92.732 -160.277)" fill="#fff" stroke="#a90c44" stroke-linecap="round" stroke-linejoin="round" stroke-width="3"/>
        <path id="Caminho_190" data-name="Caminho 190" d="M228.84,344.292s-6.592-5.7-17.934,11.946c-9.215,14.335,0,16.452,0,16.452s6.277,4.5,17.934-14.754C235.192,347.442,228.84,344.292,228.84,344.292Z" transform="translate(-98.199 -164.789)" fill="#fff" stroke="#a90c44" stroke-linecap="round" stroke-linejoin="round" stroke-width="3"/>
        <path id="Caminho_191" data-name="Caminho 191" d="M249.652,365.645s-7.6-6.842-15.2,6.3.543,15.964.543,15.964,6.681,2.765,14.66-10.968C254.321,368.9,249.652,365.645,249.652,365.645Z" transform="translate(-103.591 -169.309)" fill="#fff" stroke="#a90c44" stroke-linecap="round" stroke-linejoin="round" stroke-width="3"/>
        <path id="Caminho_192" data-name="Caminho 192" d="M421.3,174.882l-47.783,25.194s9.991,39.528,44.741,64.723c0,0,45.176-17.376,53.429-29.538" transform="translate(-135.046 -127.54)" fill="#fff" stroke="#a90c44" stroke-linecap="round" stroke-linejoin="round" stroke-width="3"/>
        <path id="Caminho_193" data-name="Caminho 193" d="M248.759,114.108l21.508.671a1.772,1.772,0,0,1,1.649,2.257L259.828,159.5a1.772,1.772,0,0,1-3.435-.107l-9.419-43.132A1.772,1.772,0,0,1,248.759,114.108Z" transform="translate(-107.066 -114.107)" fill="#f80" stroke="#a90c44" stroke-linecap="round" stroke-linejoin="round" stroke-width="3"/>
        <path id="Caminho_194" data-name="Caminho 194" d="M193.622,150.737l15.762-7.434a1.773,1.773,0,0,1,2.381.9l14.64,33.668a1.772,1.772,0,0,1-2.783,2.048l-30.4-26.234A1.772,1.772,0,0,1,193.622,150.737Z" transform="translate(-95.059 -120.522)" fill="#f80" stroke="#a90c44" stroke-linecap="round" stroke-linejoin="round" stroke-width="3"/>
        <path id="Caminho_195" data-name="Caminho 195" d="M291.024,173.038l9.579-26.315a1.773,1.773,0,0,1,2.129-1.1l16.828,4.567a1.772,1.772,0,0,1,.662,3.078l-26.407,21.748A1.772,1.772,0,0,1,291.024,173.038Z" transform="translate(-116.787 -121.058)" fill="#f80" stroke="#a90c44" stroke-linecap="round" stroke-linejoin="round" stroke-width="3"/>
        <path id="Caminho_196" data-name="Caminho 196" d="M112.048,425.249,98.491,408.538a1.772,1.772,0,0,1,.629-2.723l40.029-18.62a1.772,1.772,0,0,1,2.166,2.67L114.841,425.2A1.771,1.771,0,0,1,112.048,425.249Z" transform="translate(-74.17 -174.427)" fill="#f80" stroke="#a90c44" stroke-linecap="round" stroke-linejoin="round" stroke-width="3"/>
        <path id="Caminho_197" data-name="Caminho 197" d="M176.737,440.267,160.806,433.2a1.771,1.771,0,0,1-.879-2.387l15.9-33.093a1.772,1.772,0,0,1,3.369.767l.031,40.156A1.772,1.772,0,0,1,176.737,440.267Z" transform="translate(-87.798 -176.57)" fill="#f80" stroke="#a90c44" stroke-linecap="round" stroke-linejoin="round" stroke-width="3"/>
        <path id="Caminho_198" data-name="Caminho 198" d="M128.921,358.248l-26.174,9.959a1.771,1.771,0,0,1-2.227-.889L92.972,351.6a1.772,1.772,0,0,1,1.9-2.514l33.722,5.758A1.772,1.772,0,0,1,128.921,358.248Z" transform="translate(-72.999 -166.037)" fill="#f80" stroke="#a90c44" stroke-linecap="round" stroke-linejoin="round" stroke-width="3"/>
        <path id="Caminho_199" data-name="Caminho 199" d="M425.028,416.1,408.717,430.14a1.772,1.772,0,0,1-2.74-.549L386.2,390.118a1.772,1.772,0,0,1,2.6-2.242l36.084,25.438A1.772,1.772,0,0,1,425.028,416.1Z" transform="translate(-137.805 -174.542)" fill="#f80" stroke="#a90c44" stroke-linecap="round" stroke-linejoin="round" stroke-width="3"/>
        <path id="Caminho_200" data-name="Caminho 200" d="M438.363,357.514l-6.6,16.13a1.772,1.772,0,0,1-2.361.947l-33.539-14.932a1.772,1.772,0,0,1,.668-3.39l40.139-1.2A1.772,1.772,0,0,1,438.363,357.514Z" transform="translate(-139.751 -167.365)" fill="#f80" stroke="#a90c44" stroke-linecap="round" stroke-linejoin="round" stroke-width="3"/>
        <path id="Caminho_201" data-name="Caminho 201" d="M357.895,402.926,368.611,428.8a1.772,1.772,0,0,1-.824,2.252l-15.493,8a1.772,1.772,0,0,1-2.568-1.822l4.778-33.875A1.771,1.771,0,0,1,357.895,402.926Z" transform="translate(-129.782 -177.7)" fill="#f80" stroke="#a90c44" stroke-linecap="round" stroke-linejoin="round" stroke-width="3"/>
      </g>
    </g>
  </g>
</svg>
