<svg xmlns="http://www.w3.org/2000/svg" width="5" height="282" viewBox="0 0 5 282">
  <line id="Linha_1" data-name="Linha 1" y2="277" transform="translate(2.5 2.5)" fill="none" stroke="#f80" stroke-linecap="round" stroke-width="5"/>
</svg>
